{
  "images" : [
    {
      "filename" : "transparent-mathematician-icon-careers-women-icon-scientist-ic-5de6276640fb31.5802254015753644542662.png",
      "idiom" : "universal",
      "scale" : "1x"
    },
    {
      "idiom" : "universal",
      "scale" : "2x"
    },
    {
      "idiom" : "universal",
      "scale" : "3x"
    }
  ],
  "info" : {
    "author" : "xcode",
    "version" : 1
  }
}
